{
  "2": "093_Welcome_talk", 
  "5": "296_Testing_Migration", 
  "6": "383_Debian_Live", 
  "10": "081_Debian_Stable_Release_Management", 
  "11": "391_Wacky_ideas", 
  "12": "366_GNU_Radio_Tutorial", 
  "13": "248_i18n_work_session_18._Launch_session", 
  "14": "115_Twobuntu", 
  "15": "255_Systems_Administration_with_User_Packages", 
  "16": "397_OpenStreetMap", 
  "19": "299_How_to_reach_world_domination", 
  "20": "103_Postmortem_on_Debian_Creative_Commons_Workgroup", 
  "21": "408_Dependency_based_boot_sequence", 
  "22": "314_Integrating_LTSP_into_Debian", 
  "23": "396_Debtags_is_ready", 
  "24": "388_WTFM_again_Write_The_Fine_Manual_page", 
  "25": "353_Bhutans_journey_towards_open_source", 
  "28": "138_Debian_Release_Management", 
  "29": "242_DebianGNU_+_OpenSolaris_Nexenta", 
  "30": "134_Embedded_Debian", 
  "31": "390_Debian_the_Universal_Operating_System", 
  "32": "076_Knowledge_Power_and_Free_Beer", 
  "33": "394_Leading_a_Free_Software_project", 
  "35": "061_Configuration_file_handling", 
  "36": "325_Trademarks_Debian", 
  "37": "253_Debian_event_howto", 
  "38": "266_Publicity_coordination_meeting", 
  "40": "132_Selecting_developing_and_deploying_Debian-based_IT_solutions_in_the_Venezuelan_migration_process", 
  "42": "393_Debian_travels_around_the_world", 
  "44": "395_Method_diffusion_in_large_volunteer_projects", 
  "45": "404_netconf", 
  "47": "127_bugs.debian.org_and_debbugs_part_1", 
  "50": "252_The_X_Strike_Force_Roadmap_For_Lenny", 
  "51": "402_Maintaining_Packages_With_Git", 
  "53": "279_Forking_Debian_every_day", 
  "56": "410_Debian_Installer_an_update", 
  "59": "384_Evolving_Debians_governance", 
  "60": "152_Resurrecting_cruft", 
  "62": "115_State_of_the_Coffee_Cup", 
  "63": "376_Automated_testing_of_Debian_packages_status_update", 
  "64": "362_pbuilder_talk", 
  "65": "211_Debian_virtualization_support", 
  "66": "378_Security_support_in_Debian", 
  "67": "375_Open_fonts_in_Debian", 
  "68": "213_PC_Install_and_Backup_Management", 
  "69": "239_Ligusk", 
  "70": "369_Closing_ceremony", 
  "71": "141_How_to_include_CDDs_in_lenny", 
  "72": "358_debian-community.org", 
  "73": "334_hardware_detection_options_and_solutions", 
  "74": "389_The_secure_Debian_Desktop", 
  "78": "244_Debian_Live_Systems", 
  "79": "097_Bits_from_the_DPL", 
  "80": "333_Use_and_defense_of_the_Debian_trademark", 
  "83": "409_Data_Mining_Popcon", 
  "84": "286_Quality_assurance_activities_for_localization", 
  "85": "117_About_porting_SuperH_for_Debian", 
  "88": "337_Debian_for_Computational_Grids", 
  "93": "349_Solving_social_problems_via_soc-ctte", 
  "95": "101_SELinux_for_dummies", 
  "96": "385_The_policy_and_RC_bug_goulash", 
  "97": "372_Rewriting_the_Policy_to_be_machine_interpretable", 
  "98": "279_Debian_A_Force_To_Be_Reckoned_With", 
  "99": "323_Derivatives_Round_Table", 
  "100": "278_Debian_KDE_Extras_Team", 
  "103": "148_Debian_Armel_Port", 
  "104": "371_Mole_Infrastructure_for_managing_information", 
  "107": "154_Tracking_the_signal_in_the_noise", 
  "109": "329_Proactive_Bug_Discovery", 
  "110": "387_dak_future_direction_BoF", 
  "118": "380_Measuring_etch", 
  "119": "270_Understanding_the_Human_Genome_with_Debian", 
  "121": "077_Hewlett_Packards_Relationship_with_Debian", 
  "122": "368_Lightning_talks", 
  "124": "255_Supporting_15000_packages", 
  "125": "066_Making_music_on_Debian_with_64_Studio", 
  "126": "281_OpenJDK_and_the_Free_Java_Packaging_Roadmap", 
  "135": "373_DebConf_9_presentations", 
  "140": "343_From_Concept_to_Concrete_part_2", 
  "141": "359_Linux_interfaces_error_detection_hardware", 
  "144": "220_bugs.debian.org_features_BoF", 
  "145": "246_Software_Quality_Observatory_An_EC_Research_Project", 
  "146": "377_LiMux_Debian_desktops_in_the_city_of_Munich", 
  "147": "374_Sapodesk_free_RIAs", 
  "151": "207_Summer_of_Code_BoF", 
  "154": "073_Spotify", 
  "159": "074_Free_software_and_open_systems_in_government", 
  "160": "070_Use_of_free_software_in_education", 
  "161": "072_Free_as_in_Market_the_misunderstood_entanglement_of_ethics_software_and_profits", 
  "162": "079_Free_software_in_the_commercial_environment", 
  "163": "379_SPI_board_meeting", 
  "164": "087_Bazaar_bzr_workshop", 
  "168": "126_Debian-Med_BOF", 
  "172": "386_Debian_games_team_BoF", 
  "174": "193_i18n_work_session_3_Pootle", 
  "177": "381_Popcon_BoF", 
  "181": "411_Wacky_Ideas_II", 
  "182": "407_Time_for_a_better_init_system", 
  "196": "364_DebConf7_-_DebConf8", 
  "200": "273_Etch_and_12_BOF", 
  "207": "243_Jam_session", 
  "209": "392_lintian_BOF", 
  "216": "836_Closing_ceremony", 
  "218": "486_Welcome_talk", 
  "221": "800_Emdebian_update", 
  "226": "542_Managing_666_packages_or_how_to_tame_the_beast", 
  "227": "612_dh_make_webapp_yeah_right", 
  "229": "546_Locating_bugs_to_kill_with_SOAP", 
  "230": "811_netconf", 
  "233": "547_Packaging_with_version_control_systems", 
  "234": "565_Bugs_in_large_packages", 
  "235": "826_organizing_better_in-person_meetings", 
  "236": "645_QA_BoF_part_II", 
  "237": "545_Quality_Assurance_in_lenny+1", 
  "238": "617_Best_practises_in_team-maintaining_packages", 
  "239": "584_Custom_Debian_Distributions", 
  "241": "630_Bringing_closer_Debian_and_Rails", 
  "242": "595_Healthy_CDDs", 
  "243": "804_Debian-Science", 
  "245": "576_Debian_Derivers_Roundtable", 
  "251": "491_the_MANCOOSI_research_project", 
  "262": "600_Debian-Med_BOF", 
  "265": "822_Multi_winner_voting_in_Debian", 
  "266": "661_Debian_technical_policy_update", 
  "270": "519_bits_from_NMs_and_users", 
  "275": "686_Virtualisation_in_Debian_-_Present_and_future", 
  "286": "594_Debian_Edu_100_in_main", 
  "288": "563_the_Debian_Videoteam_--_Behind_the_Scenes", 
  "289": "652_Debian_Webservices_Development", 
  "290": "541_I18n_mini-session_14", 
  "291": "586_i18n_mini-sessions_24", 
  "292": "642_i18n_mini-sessions_34", 
  "293": "814_i18n_mini-sessions_44", 
  "301": "574_Debian_and_Ubuntu", 
  "304": "797_Debian-HPC_making_Debian_the_distro_for_clusters_and_supercomputers", 
  "306": "467_Redesigning_DEHS_a.k.a._changing_the_watch_files_atmosphere", 
  "307": "494_Debian_Wiki", 
  "310": "609_Internationalization_in_Debian", 
  "313": "597_DebConf9_C\u00e1ceres", 
  "316": "601_DebConf_10", 
  "317": "664_OpenSSLDebian_debacle", 
  "318": "660_LessWatts", 
  "319": "508_hp.comgodebian", 
  "320": "489_Debian", 
  "325": "807_Debian_LiMux", 
  "326": "831_Lightning_Talks", 
  "327": "423_Videoteam_Test_Event_1", 
  "340": "414_Videoteam_Test_Event_12", 
  "342": "818_Sustainable_Computing", 
  "343": "604_Why_Is_Linux_and_Free_Software_Like_a_Player_Piano", 
  "345": "817_Lenny", 
  "347": "653_ThinkPadding", 
  "352": "649_Predictable_PRNG_in_the_Vulnerable_Debian_OpenSSL_Package", 
  "353": "803_Swimming", 
  "355": "608_Day_Trip", 
  "356": "834_Peace_Love_and_Rockets", 
  "357": "823_Best_practises_in_team-maintaining_packages_part_2", 
  "359": "830_The_design_of_netconf", 
  "362": "891_SPI_BOF", 
  "363": "1034_Ganeti", 
  "364": "1066_Hardware_report_database_and_PopCon", 
  "365": "1026_Debian_Wiki", 
  "366": "914_News_on_Debian_Autobuilding", 
  "371": "926_immunity_securing_untrusted_processes", 
  "372": "935_Application_of_UDD_in_Blends", 
  "373": "857_Free_Beer_Power_and_Knowledge", 
  "378": "883_Google_Summer_of_Code_2009_at_Debian", 
  "381": "1030_Tool_adoption_behaviour_in_the_Debian_project", 
  "382": "951_QEMU_for_Debian_Developers", 
  "384": "892_Debian_Science_Round_Table", 
  "389": "899_pam-auth-update_manhandling_debconf_for_fun_and_profit", 
  "390": "1009_Crossbuilding_on_Debian_for_a_derived_distro", 
  "391": "932_UDD_Ultimate_Debian_Database", 
  "392": "904_Quality_Assurance_BOF", 
  "394": "1028_Building_Debian_from_Debian", 
  "395": "903_Multiarch_round_table", 
  "396": "1069_debian-devel_list", 
  "398": "1043_Debian_and_the_Openmoko_FreeRunner_one_year_later", 
  "400": "905_I18n_sessions_14", 
  "404": "898_Trust_is_good_control_is_better", 
  "405": "1061_Piuparts_workers_unite", 
  "407": "991_Keynote_from_the_Release_Team", 
  "408": "937_Point_Releases", 
  "409": "1068_Stable-volatile-backports_ecosystem", 
  "412": "1020_Debian_on_Network_Storage_Devices_and_Other_Devices", 
  "413": "916_Using_FOSSology_for_license_analysis_in_Debian", 
  "414": "927_Upgrade-advisor_analysing_system_upgrade", 
  "415": "896_Non-English_IRC_Support", 
  "416": "1059_DSA_BoF", 
  "417": "996_RFH_maintaining_big_packages", 
  "418": "1060_Not_your_grandpas_debhelper", 
  "421": "1011_boot_loaders", 
  "424": "1008_Debian_CD_-_what_next", 
  "427": "902_Where_does_Debian_fit_in", 
  "428": "1067_Emdebian_BoF", 
  "429": "1016_Introducing_DebConf10", 
  "430": "1062_Using_Debian_for_hardware_design", 
  "431": "889_Teams_in_Debian_Finding_and_integrating_new_members", 
  "434": "997_State_of_the_BTS", 
  "436": "986_Drowning_in_Bugs", 
  "443": "985_Packing_the_data_in_and_getting_it_back_out", 
  "444": "989_Libvirt_Hypervisor_independent_virtual_machine_management", 
  "447": "972_Dance_BoF", 
  "450": "1032_Introduction_to_Shaft", 
  "456": "1037_Cooperation_and_Social_Status_in_Free_and_Open_Source_Projects", 
  "457": "992_Visualizing_Debian_package_clusters", 
  "458": "912_DDE_Debian_Data_Export", 
  "459": "997_Debian_redesign", 
  "460": "861_LiMux_in_Munich", 
  "461": "1053_Lightning_talks", 
  "463": "1065_Welcome", 
  "464": "1054_Closing_ceremony", 
  "466": "993_DebConf_11_in_your_city", 
  "467": "842_Entendiendo_Debian_", 
  "475": "876_Kernel_BoF", 
  "477": "872_La_importancia_de_las_licencias_en_Debian", 
  "478": "867_Debian_por_dentro", 
  "479": "869_Por_que_contribuir_a_Debian", 
  "481": "846_Junta_de_Extremadura", 
  "482": "848_EzWeb_Open_Source_Mashup_Platform", 
  "489": "887_Counting_Debian", 
  "494": "1063_Extrayendole_el_jugo_a_Debian_para_dar_vitaminas_a_la_Educacion", 
  "495": "847_HP_and_Debian", 
  "496": "983_Debian_FTP_Team", 
  "498": "839_FLOSSInclude_Project_Presentation", 
  "499": "874_GPG_keysigning_party_informationdiscussion", 
  "500": "1064_Adaptacion_de_Debian_a_un_entorno_corporativo", 
  "501": "970_use_Perl_qwagain", 
  "502": "908_Changing_the_default_system_shell", 
  "503": "841_Contando_Debian", 
  "506": "944_vcs-pkg.org", 
  "507": "844_Extremaduathome", 
  "511": "1058_Money", 
  "515": "969_PET_BoF", 
  "524": "1014_Accessibility_and_Debian", 
  "527": "1046_Shared_libraries_and_the_new_maintainer_templates", 
  "528": "1121_SPI_BOF", 
  "529": "1265_Interesting_network_features_of_your_Debian_system", 
  "531": "1115_The_Unity_Desktop_Environment", 
  "535": "1255_Free_software_for_replacing_Skype", 
  "537": "1073_Google_Summer_of_Code_2010_at_Debian", 
  "538": "1253_DebiankFreeBSD_from_the_FreeBSD_Point_of_View", 
  "539": "1365_1365_DebConf11_in_Bosnia", 
  "541": "1077_Steps_to_adopting_FOSS_in_government", 
  "542": "1092_FLOSS_Manuals_A_Vibrant_Community_for_Documentation_Development", 
  "547": "1343_State_of_Debian_based_Linux_live_systems_in_2010", 
  "548": "1259_X_in_squeeze", 
  "552": "1570_1570_Stable_Release_Management_and_the_future_of_Debian_Volatile", 
  "555": "1319_1319_Debian_Science_Round_Table", 
  "556": "1276_Managing_Debian_Installations", 
  "557": "1303_1303_Mathematical_Software_in_Debian", 
  "558": "1290_The_Free_Java_Jigsaw_Puzzle", 
  "559": "1280_Enterprise_Infrastructure_BOF", 
  "563": "1098_Debian_at_a_large_Dutch_University", 
  "564": "1579_1579_Swimming_upstream", 
  "567": "1292_Debian-Java_BoF_Session", 
  "569": "1124_1124_Bits_from_the_DPL", 
  "570": "1127_Packaging_Python_modules_and_applications", 
  "571": "1310_1310_Debian_The_ultimate_platform_for_neuroimaging_research", 
  "572": "1382_1382_Monkeysphere", 
  "576": "1332_1332_What_if...._we_could_automatically_test_our_textual_instructions", 
  "577": "1285_The_Java_Packaging_Nightmare", 
  "578": "1275_Using_Debian_for_Enterprise_Infrastructure", 
  "580": "1367_1367_Debbugs", 
  "583": "1299_A_battle_cry_for_a_system-level_JVM_in_Debian", 
  "584": "1293_Packaging_with_javahelper", 
  "585": "1294_Debian-java_policy_changes", 
  "587": "1274_Puppet_BOF", 
  "588": "1279_Moonshot_Federated_Authentication_beyond_the_Web", 
  "589": "1326_FOSSology_and_Debian", 
  "591": "1574_1574_Handling_Debian_bugs_with_SD", 
  "592": "1249_Statistical_Machine_Learning_Analysis_of_Debian_Mailing_Lists", 
  "595": "1117_Debian_GNUHurd", 
  "596": "1368_1368_use_Perl", 
  "597": "1103_Beyond_Sharing_Open_Source_Design", 
  "603": "1352_1352_Debian_as_a_home_TV_etc._management_system", 
  "604": "1317_1317_Overall_presentation_of_the_Debian_Science_", 
  "607": "1380_1380_BoF_Debian_Publicity", 
  "609": "1080_RC_bug_fixing_+_NMU_Fun", 
  "611": "1313_1313_New_developments_in_Science_Packaging", 
  "613": "1335_1335_Patent_Absurdity", 
  "615": "1357_1357_Brave_new_Multimedia_World", 
  "617": "1125_GPLv3_Better_Copyleft_for_Developers_and_Users", 
  "619": "1361_1361_Cross-distro_dependency_resolution_reusing_solvers_among_distros", 
  "621": "1316_1316_So_you_want_to_host_DebConf12", 
  "627": "1364_1364_Making_Debian_Rule_again", 
  "628": "1105_Pedagogical_Freedom", 
  "630": "1391_Integrating_new_people_in_packaging_teams", 
  "633": "1260_The_Challenges_of_Licensing_in_Debian", 
  "634": "1339_1339_What_git-buildpackage_hopefully_can_do_for_you", 
  "635": "1306_Upstart_in_Debian", 
  "636": "1123_Collaboration_between_Ubuntu_and_Debian", 
  "637": "1345_1345_Conference_Video", 
  "641": "1252_How_We_Can_Be_the_Silver_Lining_of_the_Cloud", 
  "642": "1329_Antifeatures", 
  "643": "1337_1337_The_Nexenta_Project_OpenSolaris_+_apt_+_GNU", 
  "644": "1078_Debconf_opening_plenary", 
  "645": "1582_1582_Debconf_closing_plenary", 
  "646": "1580_1580_Lightning_Talks", 
  "647": "1273_Using_Debian_to_provide_services_to_thousands", 
  "649": "1387_1387_ARM_porters_friendly_talk-BoF", 
  "658": "1575_1575_DebConf_and_Debian_BoF", 
  "659": "1383_1383_Distributed_Bug_Tracking_BoF", 
  "662": "1351_1351_Bits_from_the_Release_Team", 
  "663": "1073_1073_Project_Caua_Private_Sector_Environmentally_Friendly_Jobs_with_Free_Software", 
  "664": "1082_Why_is_GNULinux_Like_a_Player_Piano", 
  "670": "1356_1356_Improving_Debians_Multimedia_Experience", 
  "673": "1079_Debian_Day_opening_Plenary", 
  "674": "1073_1073_How_Government_can_Foster_Freedom_in_Technology", 
  "681": "1359_1359_CUT_BoF", 
  "697": null, 
  "698": null, 
  "701": null, 
  "702": null, 
  "703": null, 
  "704": null, 
  "705": null, 
  "707": null, 
  "708": null, 
  "709": null, 
  "710": null, 
  "711": null, 
  "712": null, 
  "714": null, 
  "716": null, 
  "717": null, 
  "718": null, 
  "719": null, 
  "720": null, 
  "722": null, 
  "723": null, 
  "724": null, 
  "725": null, 
  "726": null, 
  "728": null, 
  "731": null, 
  "732": null, 
  "733": null, 
  "734": null, 
  "739": null, 
  "740": null, 
  "741": null, 
  "743": null, 
  "745": null, 
  "747": null, 
  "750": null, 
  "751": null, 
  "754": null, 
  "756": null, 
  "758": null, 
  "759": null, 
  "760": null, 
  "761": null, 
  "762": null, 
  "763": null, 
  "764": null, 
  "766": null, 
  "767": null, 
  "769": null, 
  "770": null, 
  "771": null, 
  "773": null, 
  "775": null, 
  "776": null, 
  "777": null, 
  "778": null, 
  "779": null, 
  "781": null, 
  "783": null, 
  "784": null, 
  "785": null, 
  "788": null, 
  "791": null, 
  "793": null, 
  "795": null, 
  "797": null, 
  "803": null, 
  "804": null, 
  "805": null, 
  "806": null, 
  "807": null, 
  "809": null, 
  "817": null, 
  "826": null, 
  "836": null, 
  "847": "847_SPI_BOF", 
  "848": "848_FreedomBox_Update", 
  "849": "849_Understanding_Debian", 
  "850": "850_Meet_the_Technical_Committee", 
  "851": "851_www.debian.org_its_alive", 
  "852": "852_Integrating_Emdebian_into_Debian", 
  "853": "853_Meet_the_Release_Team", 
  "854": "854_Ganeti_how_you_can_use_it_+_how_we_did_it", 
  "855": "855_Advanced_linux_kernel_networking_features_for_virtualization", 
  "856": "856_DSA_BoF", 
  "857": "857_Bits_from_the_Release_Team", 
  "859": "859_Xen_and_Debian", 
  "860": "860_DebConf13_Switzerland", 
  "861": "861_Git_and_Debian_Packaging", 
  "863": "863_Como_colaborar_con_Debian", 
  "864": "864_Sostenibilidad_Soberan\u00eda_Idoneidad_y_Democratizaci\u00f3n_de_las_TIC_en_el_Ministerio_de_Salud_de_El_Salvador", 
  "865": "865_Mejorando_Ubuntu_desde_Debian", 
  "866": "866_use_Perl", 
  "867": "867_XCP_Openstack_Debian_and_the_Cloud", 
  "868": "868_Building_free_software_communities", 
  "869": "869_DC13_team_coordination_BoF", 
  "870": "870_ARM_ports_update", 
  "871": "871_Debian-CD", 
  "872": "872_wiki.debian.org", 
  "874": "874_Multiarch_crossbuilding", 
  "875": "875_Crossbuildingbootstrapping_BOF", 
  "876": "876_Getting_packages_into_Debian_BoF", 
  "879": "879_Debian_software_libre_y_abierto_en_la_sociedad_actual", 
  "880": "880_Jenkins_-_taking_version_controlled_builds_to_the_next_level", 
  "881": "881_Bits_from_the_DPL", 
  "882": "882_AArch64_planning", 
  "883": "883_Escuelas_libres_con_DebianEdu", 
  "884": "884_Build_Debian_with_another_compiler", 
  "885": "885_Seeds_of_resistance", 
  "886": "886_Configuration_management_automation_tools_BoF", 
  "887": "887_Multiarch_packaging_workshop", 
  "888": "888_Machine_learning_threats_and_opportunities_for_Debian_and_Free_Software", 
  "889": "889_Uso_del_sistema_de_manejo_de_errores_de_Debian", 
  "890": "890_Introduction_to_Debian_translation_workflow_and_processes", 
  "891": "891_debian-l10n-spanish", 
  "892": "892_Empaquetando_software_para_Debian", 
  "893": "893_Debian_derivatives_BoF", 
  "894": "894_News_from_EDOS_finding_outdated_packages", 
  "895": "895_X.509_Cert_Store_Discussion", 
  "896": "896_OpenPGP_discussion_and_skillshare", 
  "900": "900_Lightning_Talks", 
  "901": "901_Welcome_talk", 
  "903": "903_Closing_ceremony", 
  "904": "904_DebConf14_in_your_city", 
  "905": "905_DebConf_organisation_BoF", 
  "909": "909_Inauguraci\u00f3n_D\u00eda_Debian", 
  "911": "911_Debconf_Travel_sponsoring_BoF", 
  "917": "917_Debian_QA_una_puerta_de_entrada_al_proyecto_Debian", 
  "918": "918_Games_team_BoF", 
  "919": "919_Yota_One_y_GNULinux", 
  "920": "920_Incompatibility_and_pain_-_a_perspective_from_Xen_upstream", 
  "921": "921_Empaquetando_colaborativamente_con_git_y_collab-maint", 
  "922": "922_Linux_Capabilities", 
  "924": "924_Welcome_on_board", 
  "925": "925_EFI_in_Debian", 
  "926": "926_Hijacking_packages_for_fun_and_profit", 
  "927": "927_Debian_Nicaragua_BoF", 
  "928": "928_Debian_NI_tras_bastidores", 
  "930": "930_Lets_shrink_Debian_package_archive", 
  "932": "932_BoF_Is_there_life_after_the_barf", 
  "933": "933_Free_as_in_freedom_communications_VoIP_and_messaging", 
  "935": "935_Linux_Capabilities", 
  "947": "947_Debian_mobile_BoF", 
  "948": "948_d-i_skills_exchange", 
  "949": "949_Video_training", 
  "950": "950_future_plans_for_dak", 
  "951": "951_Reigning_over_high-volume_Debian_e-mails", 
  "952": "952_IPv6_in_Debian_BoF", 
  "953": "953_My_debcampdebconf_project_ipcfg", 
  "954": "954_OpenPGP_Hacking_BoF", 
  "956": "956_Canaima_Semilla_Haciendo_distribuciones_derivadas", 
  "958": "958_VoIP_and_Lumicall_QA_session", 
  "960": null, 
  "962": null, 
  "964": null, 
  "965": null, 
  "966": null, 
  "967": null, 
  "968": null, 
  "969": null, 
  "970": null, 
  "972": null, 
  "973": null, 
  "974": null, 
  "975": null, 
  "976": null, 
  "977": null, 
  "978": null, 
  "979": null, 
  "980": null, 
  "981": null, 
  "983": null, 
  "984": null, 
  "986": null, 
  "987": null, 
  "988": null, 
  "989": null, 
  "993": null, 
  "994": null, 
  "995": null, 
  "997": null, 
  "998": null, 
  "999": null, 
  "1000": null, 
  "1001": null, 
  "1002": null, 
  "1003": null, 
  "1004": null, 
  "1005": null, 
  "1006": null, 
  "1007": null, 
  "1008": null, 
  "1009": null, 
  "1011": null, 
  "1012": null, 
  "1013": null, 
  "1014": null, 
  "1015": null, 
  "1017": null, 
  "1018": null, 
  "1019": null, 
  "1020": null, 
  "1021": null, 
  "1022": null, 
  "1023": null, 
  "1024": null, 
  "1025": null, 
  "1026": null, 
  "1027": null, 
  "1028": null, 
  "1029": null, 
  "1030": null, 
  "1031": null, 
  "1032": null, 
  "1033": null, 
  "1035": null, 
  "1036": null, 
  "1037": null, 
  "1038": null, 
  "1039": null, 
  "1041": null, 
  "1042": null, 
  "1043": null, 
  "1044": null, 
  "1048": null, 
  "1049": null, 
  "1050": null, 
  "1051": null, 
  "1054": null, 
  "1060": null, 
  "1065": null, 
  "1073": null, 
  "1089": null, 
  "1092": null
}